com\valkyrie\converter\CaracteristicaConverter.class
com\valkyrie\converter\InmuebleConverter.class
com\valkyrie\proyintmaven\Identificacion_.class
com\valkyrie\proyintmaven\Reserva.class
com\valkyrie\proyintmaven\Respuesta.class
com\valkyrie\controller\CaracteristicaController.class
com\valkyrie\converter\IdentificacionConverter.class
com\valkyrie\controller\util\JsfUtil.class
com\valkyrie\controller\AbstractController$PersistAction.class
com\valkyrie\facade\RespuestaFacade.class
com\valkyrie\converter\EmpresaConverter.class
com\valkyrie\facade\UsuarioFacade.class
com\valkyrie\proyintmaven\Ubicacion_.class
com\valkyrie\proyintmaven\Identificacion.class
com\valkyrie\converter\InventarioConverter.class
com\valkyrie\controller\AbstractController.class
com\valkyrie\controller\LugarController.class
com\valkyrie\controller\InvelementosController.class
com\valkyrie\controller\util\MobilePage.class
com\valkyrie\proyintmaven\Pregunta.class
com\valkyrie\controller\UbicacionController.class
com\valkyrie\proyintmaven\Usuario_.class
com\valkyrie\controller\PreguntaController.class
com\valkyrie\controller\IdentificacionController.class
com\valkyrie\controller\util\MobilePageController.class
com\valkyrie\converter\LugarConverter.class
com\valkyrie\facade\IdentificacionFacade.class
com\valkyrie\proyintmaven\Caracteristica.class
com\valkyrie\proyintmaven\Respuesta_.class
com\valkyrie\facade\ReservaFacade.class
com\valkyrie\proyintmaven\Inventario_.class
com\valkyrie\proyintmaven\Caracteristica_.class
com\valkyrie\controller\PagoController.class
com\valkyrie\converter\PreguntaConverter.class
com\valkyrie\facade\LazyEntitySorter.class
com\valkyrie\proyintmaven\Pregunta_.class
com\valkyrie\converter\RespuestaConverter.class
com\valkyrie\controller\FotoController.class
com\valkyrie\proyintmaven\Empresa.class
com\valkyrie\controller\util\CurrentPageActionListener.class
com\valkyrie\proyintmaven\Lugar.class
com\valkyrie\controller\InventarioController.class
com\valkyrie\converter\UbicacionConverter.class
com\valkyrie\facade\AbstractFacade.class
com\valkyrie\facade\InventarioFacade.class
com\valkyrie\proyintmaven\Foto_.class
com\valkyrie\controller\UsuarioController.class
com\valkyrie\converter\UsuarioConverter.class
com\valkyrie\facade\LugarFacade.class
com\valkyrie\controller\RespuestaController.class
com\valkyrie\proyintmaven\Empresa_.class
com\valkyrie\facade\PagoFacade.class
com\valkyrie\facade\EmpresaFacade.class
com\valkyrie\proyintmaven\Inmueble.class
com\valkyrie\proyintmaven\Invelementos.class
com\valkyrie\facade\FotoFacade.class
com\valkyrie\controller\InmuebleController.class
com\valkyrie\converter\FotoConverter.class
com\valkyrie\proyintmaven\Inventario.class
com\valkyrie\facade\EntityUtility.class
com\valkyrie\facade\CaracteristicaFacade.class
com\valkyrie\proyintmaven\Ubicacion.class
com\valkyrie\proyintmaven\Pago_.class
com\valkyrie\proyintmaven\Usuario.class
com\valkyrie\facade\UbicacionFacade.class
com\valkyrie\facade\InmuebleFacade.class
com\valkyrie\controller\ReservaController.class
com\valkyrie\converter\PagoConverter.class
com\valkyrie\facade\LazyEntityDataModel.class
com\valkyrie\converter\InvelementosConverter.class
com\valkyrie\proyintmaven\Inmueble_.class
com\valkyrie\proyintmaven\Lugar_.class
com\valkyrie\proyintmaven\Reserva_.class
com\valkyrie\controller\EmpresaController.class
com\valkyrie\facade\PreguntaFacade.class
com\valkyrie\proyintmaven\Pago.class
com\valkyrie\converter\ReservaConverter.class
com\valkyrie\facade\InvelementosFacade.class
com\valkyrie\proyintmaven\Invelementos_.class
com\valkyrie\proyintmaven\Foto.class
